test/vcd/litescope.vcd
$date
	2017-07-20 20:45
$end
$timescale 1ps $end
$scope 1ps $end
$var wire 1 ! sdphy_cmdr_sink_sink_valid $end
$var wire 8 " sdphy_cmdr_sink_sink_payload_data $end
$var wire 8 # sdphy_cmdr_sink_sink_payload_ctrl $end
$var wire 1 $ sdphy_cmdr_sink_sink_last $end
$var wire 1 % sdphy_cmdr_sink_sink_ready $end
$var wire 1 & sdphy_cmdr_source_source_valid $end
$var wire 8 ' sdphy_cmdr_source_source_payload_data $end
$var wire 8 ( sdphy_cmdr_source_source_payload_ctrl $end
$var wire 1 ) sdphy_cmdr_source_source_last $end
$var wire 1 * sdphy_cmdr_source_source_ready $end
$var wire 3 + sdphy_cmdr_cmdrfb_sel $end
$var wire 8 , sdphy_cmdr_cmdrfb_data $end
$var wire 1 - sdphy_cmdr_enable $end
$var wire 1 . sdphy_cmdr_pads_cmd_i $end
$var wire 1 / sdphy_cmdr_cmdrfb_source_valid $end
$var wire 8 0 sdphy_cmdr_cmdrfb_source_payload_data $end
$var wire 1 1 sdphy_cmdr_cmdrfb_source_last $end
$var wire 1 2 sdphy_cmdr_cmdrfb_source_ready $end
$var wire 1 3 sdphy_sdpads_cmd_i $end
$var wire 1 4 sdphy_sdpads_cmd_o $end
$var wire 1 5 sdphy_sdpads_cmd_oe $end
$var wire 4 6 sdphy_sdpads_data_i $end
$var wire 4 7 sdphy_sdpads_data_o $end
$var wire 1 8 sdphy_sdpads_data_oe $end
$var wire 1 9 sdphy_sdpads_clk $end
$var wire 1 : capture_clk $end
$unscope  $end
$enddefinitions  $end
$dumpvars
bx !
bxxxxxxxx "
bxxxxxxxx #
bx $
bx %
bx &
bxxxxxxxx '
bxxxxxxxx (
bx )
bx *
bxxx +
bxxxxxxxx ,
bx -
bx .
bx /
bxxxxxxxx 0
bx 1
bx 2
bx 3
bx 4
bx 5
bxxxx 6
bxxxx 7
bx 8
bx 9
bx :
$end
#0
b0 !
b00000000 "
b00000000 #
b0 $
b0 %
b0 &
b00000000 '
b00000000 (
b0 )
b0 *
b000 +
b00000000 ,
b0 -
b0 .
b0 /
b00000000 0
b0 1
b1 2
b0 3
b0 4
b1 5
b0000 6
b1111 7
b0 8
b1 9
b1 :
#1
b0 !
b00000000 "
b00000000 #
b0 $
b0 %
b0 &
b00000000 '
b00000000 (
b0 )
b0 *
b000 +
b00000000 ,
b0 -
b0 .
b0 /
b00000000 0
b0 1
b1 2
b0 3
b0 4
b1 5
b0000 6
b1111 7
b0 8
b1 9
b0 :
#2
b0 !
b00000000 "
b00000000 #
b0 $
b0 %
b0 &
b00000000 '
b00000000 (
b0 )
b0 *
b000 +
b00000000 ,
b0 -
b0 .
b0 /
b00000000 0
b0 1
b1 2
b0 3
b0 4
b1 5
b0000 6
b1111 7
b0 8
b1 9
b1 :
#3
b0 !
b00000000 "
b00000000 #
b0 $
b0 %
b0 &
b00000000 '
b00000000 (
b0 )
b0 *
b000 +
b00000000 ,
b0 -
b0 .
b0 /
b00000000 0
b0 1
b1 2
b0 3
b0 4
b1 5
b0000 6
b1111 7
b0 8
b1 9
b0 :
#4
b0 !
b00000000 "
b00000000 #
b0 $
b0 %
b0 &
b00000000 '
b00000000 (
b0 )
b0 *
b000 +
b00000000 ,
b0 -
b0 .
b0 /
b00000000 0
b0 1
b1 2
b0 3
b0 4
b1 5
b0000 6
b1111 7
b0 8
b1 9
b1 :
#5
b0 !
b00000000 "
b00000000 #
b0 $
b0 %
b0 &
b00000000 '
b00000000 (
b0 )
b0 *
b000 +
b00000000 ,
b0 -
b0 .
b0 /
b00000000 0
b0 1
b1 2
b0 3
b0 4
b1 5
b0000 6
b1111 7
b0 8
b1 9
b0 :
#6
b0 !
b00000000 "
b00000000 #
b0 $
b0 %
b0 &
b00000000 '
b00000000 (
b0 )
b0 *
b000 +
b00000000 ,
b0 -
b0 .
b0 /
b00000000 0
b0 1
b1 2
b0 3
b0 4
b1 5
b0000 6
b1111 7
b0 8
b1 9
b1 :
#7
b0 !
b00000000 "
b00000000 #
b0 $
b0 %
b0 &
b00000000 '
b00000000 (
b0 )
b0 *
b000 +
b00000000 ,
b0 -
b0 .
b0 /
b00000000 0
b0 1
b1 2
b0 3
b0 4
b1 5
b0000 6
b1111 7
b0 8
b1 9
b0 :
#8
b0 !
b00000000 "
b00000000 #
b0 $
b0 %
b0 &
b00000000 '
b00000000 (
b0 )
b0 *
b000 +
b00000000 ,
b0 -
b0 .
b0 /
b00000000 0
b0 1
b1 2
b0 3
b0 4
b1 5
b0000 6
b1111 7
b0 8
b0 9
b1 :
#9
b0 !
b00000000 "
b00000000 #
b0 $
b0 %
b0 &
b00000000 '
b00000000 (
b0 )
b0 *
b000 +
b00000000 ,
b0 -
b0 .
b0 /
b00000000 0
b0 1
b1 2
b0 3
b0 4
b1 5
b0000 6
b1111 7
b0 8
b0 9
b0 :
#10
b0 !
b00000000 "
b00000000 #
b0 $
b0 %
b0 &
b00000000 '
b00000000 (
b0 )
b0 *
b000 +
b00000000 ,
b0 -
b0 .
b0 /
b00000000 0
b0 1
b1 2
b0 3
b0 4
b1 5
b0000 6
b1111 7
b0 8
b0 9
b1 :
#11
b0 !
b00000000 "
b00000000 #
b0 $
b0 %
b0 &
b00000000 '
b00000000 (
b0 )
b0 *
b000 +
b00000000 ,
b0 -
b0 .
b0 /
b00000000 0
b0 1
b1 2
b0 3
b0 4
b1 5
b0000 6
b1111 7
b0 8
b0 9
b0 :
#12
b0 !
b00000000 "
b00000000 #
b0 $
b0 %
b0 &
b00000000 '
b00000000 (
b0 )
b0 *
b000 +
b00000000 ,
b0 -
b0 .
b0 /
b00000000 0
b0 1
b1 2
b0 3
b0 4
b1 5
b0000 6
b1111 7
b0 8
b1 9
b1 :
#13
b0 !
b00000000 "
b00000000 #
b0 $
b0 %
b0 &
b00000000 '
b00000000 (
b0 )
b0 *
b000 +
b00000000 ,
b0 -
b0 .
b0 /
b00000000 0
b0 1
b1 2
b0 3
b0 4
b1 5
b0000 6
b1111 7
b0 8
b1 9
b0 :
#14
b0 !
b00000000 "
b00000000 #
b0 $
b0 %
b0 &
b00000000 '
b00000000 (
b0 )
b0 *
b000 +
b00000000 ,
b0 -
b0 .
b0 /
b00000000 0
b0 1
b1 2
b0 3
b0 4
b1 5
b0000 6
b1111 7
b0 8
b1 9
b1 :
#15
b0 !
b00000000 "
b00000000 #
b0 $
b0 %
b0 &
b00000000 '
b00000000 (
b0 )
b0 *
b000 +
b00000000 ,
b0 -
b0 .
b0 /
b00000000 0
b0 1
b1 2
b0 3
b0 4
b1 5
b0000 6
b1111 7
b0 8
b1 9
b0 :
#16
b0 !
b00000000 "
b00000000 #
b0 $
b0 %
b0 &
b00000000 '
b00000000 (
b0 )
b0 *
b000 +
b00000000 ,
b0 -
b0 .
b0 /
b00000000 0
b0 1
b1 2
b0 3
b0 4
b1 5
b0000 6
b1111 7
b0 8
b1 9
b1 :
#17
b0 !
b00000000 "
b00000000 #
b0 $
b0 %
b0 &
b00000000 '
b00000000 (
b0 )
b0 *
b000 +
b00000000 ,
b0 -
b0 .
b0 /
b00000000 0
b0 1
b1 2
b0 3
b0 4
b1 5
b0000 6
b1111 7
b0 8
b1 9
b0 :
#18
b0 !
b00000000 "
b00000000 #
b0 $
b0 %
b0 &
b00000000 '
b00000000 (
b0 )
b0 *
b000 +
b00000000 ,
b0 -
b0 .
b0 /
b00000000 0
b0 1
b1 2
b0 3
b0 4
b1 5
b0000 6
b1111 7
b0 8
b1 9
b1 :
#19
b0 !
b00000000 "
b00000000 #
b0 $
b0 %
b0 &
b00000000 '
b00000000 (
b0 )
b0 *
b000 +
b00000000 ,
b0 -
b0 .
b0 /
b00000000 0
b0 1
b1 2
b0 3
b0 4
b1 5
b0000 6
b1111 7
b0 8
b1 9
b0 :
#20
b0 !
b00000000 "
b00000000 #
b0 $
b0 %
b0 &
b00000000 '
b00000000 (
b0 )
b0 *
b000 +
b00000000 ,
b0 -
b0 .
b0 /
b00000000 0
b0 1
b1 2
b0 3
b0 4
b1 5
b0000 6
b1111 7
b0 8
b1 9
b1 :
#21
b0 !
b00000000 "
b00000000 #
b0 $
b0 %
b0 &
b00000000 '
b00000000 (
b0 )
b0 *
b000 +
b00000000 ,
b0 -
b0 .
b0 /
b00000000 0
b0 1
b1 2
b0 3
b0 4
b1 5
b0000 6
b1111 7
b0 8
b1 9
b0 :
#22
b0 !
b00000000 "
b00000000 #
b0 $
b0 %
b0 &
b00000000 '
b00000000 (
b0 )
b0 *
b000 +
b00000000 ,
b0 -
b0 .
b0 /
b00000000 0
b0 1
b1 2
b0 3
b0 4
b1 5
b0000 6
b1111 7
b0 8
b1 9
b1 :
#23
b0 !
b00000000 "
b00000000 #
b0 $
b0 %
b0 &
b00000000 '
b00000000 (
b0 )
b0 *
b000 +
b00000000 ,
b0 -
b0 .
b0 /
b00000000 0
b0 1
b1 2
b0 3
b0 4
b1 5
b0000 6
b1111 7
b0 8
b1 9
b0 :
#24
b0 !
b00000000 "
b00000000 #
b0 $
b0 %
b0 &
b00000000 '
b00000000 (
b0 )
b0 *
b000 +
b00000000 ,
b0 -
b0 .
b0 /
b00000000 0
b0 1
b1 2
b0 3
b0 4
b1 5
b0000 6
b1111 7
b0 8
b1 9
b1 :
#25
b0 !
b00000000 "
b00000000 #
b0 $
b0 %
b0 &
b00000000 '
b00000000 (
b0 )
b0 *
b000 +
b00000000 ,
b0 -
b0 .
b0 /
b00000000 0
b0 1
b1 2
b0 3
b0 4
b1 5
b0000 6
b1111 7
b0 8
b1 9
b0 :
#26
b0 !
b00000000 "
b00000000 #
b0 $
b0 %
b0 &
b00000000 '
b00000000 (
b0 )
b0 *
b000 +
b00000000 ,
b0 -
b0 .
b0 /
b00000000 0
b0 1
b1 2
b0 3
b0 4
b1 5
b0000 6
b1111 7
b0 8
b1 9
b1 :
#27
b0 !
b00000000 "
b00000000 #
b0 $
b0 %
b0 &
b00000000 '
b00000000 (
b0 )
b0 *
b000 +
b00000000 ,
b0 -
b0 .
b0 /
b00000000 0
b0 1
b1 2
b0 3
b0 4
b1 5
b0000 6
b1111 7
b0 8
b1 9
b0 :
#28
b0 !
b00000000 "
b00000000 #
b0 $
b0 %
b0 &
b00000000 '
b00000000 (
b0 )
b0 *
b000 +
b00000000 ,
b0 -
b0 .
b0 /
b00000000 0
b0 1
b1 2
b0 3
b0 4
b1 5
b0000 6
b1111 7
b0 8
b1 9
b1 :
#29
b0 !
b00000000 "
b00000000 #
b0 $
b0 %
b0 &
b00000000 '
b00000000 (
b0 )
b0 *
b000 +
b00000000 ,
b0 -
b0 .
b0 /
b00000000 0
b0 1
b1 2
b0 3
b0 4
b1 5
b0000 6
b1111 7
b0 8
b1 9
b0 :
#30
b0 !
b00000000 "
b00000000 #
b0 $
b0 %
b0 &
b00000000 '
b00000000 (
b0 )
b0 *
b000 +
b00000000 ,
b0 -
b0 .
b0 /
b00000000 0
b0 1
b1 2
b0 3
b0 4
b1 5
b0000 6
b1111 7
b0 8
b1 9
b1 :
#31
b0 !
b00000000 "
b00000000 #
b0 $
b0 %
b0 &
b00000000 '
b00000000 (
b0 )
b0 *
b000 +
b00000000 ,
b0 -
b0 .
b0 /
b00000000 0
b0 1
b1 2
b0 3
b0 4
b1 5
b0000 6
b1111 7
b0 8
b1 9
b0 :
#32
b0 !
b00000000 "
b00000000 #
b0 $
b0 %
b0 &
b00000000 '
b00000000 (
b0 )
b0 *
b000 +
b00000000 ,
b0 -
b0 .
b0 /
b00000000 0
b0 1
b1 2
b0 3
b0 4
b1 5
b0000 6
b1111 7
b0 8
b1 9
b1 :
#33
b0 !
b00000000 "
b00000000 #
b0 $
b0 %
b0 &
b00000000 '
b00000000 (
b0 )
b0 *
b000 +
b00000000 ,
b0 -
b0 .
b0 /
b00000000 0
b0 1
b1 2
b0 3
b0 4
b1 5
b0000 6
b1111 7
b0 8
b1 9
b0 :
#34
b0 !
b00000000 "
b00000000 #
b0 $
b0 %
b0 &
b00000000 '
b00000000 (
b0 )
b0 *
b000 +
b00000000 ,
b0 -
b0 .
b0 /
b00000000 0
b0 1
b1 2
b0 3
b0 4
b1 5
b0000 6
b1111 7
b0 8
b1 9
b1 :
#35
b0 !
b00000000 "
b00000000 #
b0 $
b0 %
b0 &
b00000000 '
b00000000 (
b0 )
b0 *
b000 +
b00000000 ,
b0 -
b0 .
b0 /
b00000000 0
b0 1
b1 2
b0 3
b0 4
b1 5
b0000 6
b1111 7
b0 8
b1 9
b0 :
#36
b0 !
b00000000 "
b00000000 #
b0 $
b0 %
b0 &
b00000000 '
b00000000 (
b0 )
b0 *
b000 +
b00000000 ,
b0 -
b0 .
b0 /
b00000000 0
b0 1
b1 2
b0 3
b0 4
b1 5
b0000 6
b1111 7
b0 8
b1 9
b1 :
#37
b0 !
b00000000 "
b00000000 #
b0 $
b0 %
b0 &
b00000000 '
b00000000 (
b0 )
b0 *
b000 +
b00000000 ,
b0 -
b0 .
b0 /
b00000000 0
b0 1
b1 2
b0 3
b0 4
b1 5
b0000 6
b1111 7
b0 8
b1 9
b0 :
#38
b0 !
b00000000 "
b00000000 #
b0 $
b0 %
b0 &
b00000000 '
b00000000 (
b0 )
b0 *
b000 +
b00000000 ,
b0 -
b0 .
b0 /
b00000000 0
b0 1
b1 2
b0 3
b0 4
b1 5
b0000 6
b1111 7
b0 8
b1 9
b1 :
#39
b0 !
b00000000 "
b00000000 #
b0 $
b0 %
b0 &
b00000000 '
b00000000 (
b0 )
b0 *
b000 +
b00000000 ,
b0 -
b0 .
b0 /
b00000000 0
b0 1
b1 2
b0 3
b0 4
b1 5
b0000 6
b1111 7
b0 8
b1 9
b0 :
#40
b0 !
b00000000 "
b00000000 #
b0 $
b0 %
b0 &
b00000000 '
b00000000 (
b0 )
b0 *
b000 +
b00000000 ,
b0 -
b0 .
b0 /
b00000000 0
b0 1
b1 2
b1 3
b1 4
b1 5
b0000 6
b1111 7
b0 8
b1 9
b1 :
#41
b0 !
b00000000 "
b00000000 #
b0 $
b0 %
b0 &
b00000000 '
b00000000 (
b0 )
b0 *
b000 +
b00000000 ,
b0 -
b0 .
b0 /
b00000000 0
b0 1
b1 2
b1 3
b1 4
b1 5
b0000 6
b1111 7
b0 8
b1 9
b0 :
#42
b0 !
b00000000 "
b00000000 #
b0 $
b0 %
b0 &
b00000000 '
b00000000 (
b0 )
b0 *
b000 +
b00000000 ,
b0 -
b0 .
b0 /
b00000000 0
b0 1
b1 2
b1 3
b1 4
b1 5
b0000 6
b1111 7
b0 8
b1 9
b1 :
#43
b0 !
b00000000 "
b00000000 #
b0 $
b0 %
b0 &
b00000000 '
b00000000 (
b0 )
b0 *
b000 +
b00000000 ,
b0 -
b0 .
b0 /
b00000000 0
b0 1
b1 2
b1 3
b1 4
b1 5
b0000 6
b1111 7
b0 8
b1 9
b0 :
#44
b0 !
b00000000 "
b00000000 #
b0 $
b0 %
b0 &
b00000000 '
b00000000 (
b0 )
b0 *
b000 +
b00000000 ,
b0 -
b0 .
b0 /
b00000000 0
b0 1
b1 2
b1 3
b0 4
b1 5
b0000 6
b1111 7
b0 8
b0 9
b1 :
#45
b0 !
b00000000 "
b00000000 #
b0 $
b0 %
b0 &
b00000000 '
b00000000 (
b0 )
b0 *
b000 +
b00000000 ,
b0 -
b0 .
b0 /
b00000000 0
b0 1
b1 2
b1 3
b0 4
b1 5
b0000 6
b1111 7
b0 8
b0 9
b0 :
#46
b0 !
b00000000 "
b00000000 #
b0 $
b0 %
b0 &
b00000000 '
b00000000 (
b0 )
b0 *
b000 +
b00000000 ,
b0 -
b0 .
b0 /
b00000000 0
b0 1
b1 2
b1 3
b0 4
b1 5
b0000 6
b1111 7
b0 8
b0 9
b1 :
#47
b0 !
b00000000 "
b00000000 #
b0 $
b0 %
b0 &
b00000000 '
b00000000 (
b0 )
b0 *
b000 +
b00000000 ,
b0 -
b0 .
b0 /
b00000000 0
b0 1
b1 2
b1 3
b0 4
b1 5
b0000 6
b1111 7
b0 8
b0 9
b0 :
#48
b0 !
b00000000 "
b00000000 #
b0 $
b0 %
b0 &
b00000000 '
b00000000 (
b0 )
b0 *
b000 +
b00000000 ,
b0 -
b0 .
b0 /
b00000000 0
b0 1
b1 2
b1 3
b1 4
b1 5
b0000 6
b1111 7
b0 8
b1 9
b1 :
#49
b0 !
b00000000 "
b00000000 #
b0 $
b0 %
b0 &
b00000000 '
b00000000 (
b0 )
b0 *
b000 +
b00000000 ,
b0 -
b0 .
b0 /
b00000000 0
b0 1
b1 2
b1 3
b1 4
b1 5
b0000 6
b1111 7
b0 8
b1 9
b0 :
#50
b0 !
b00000000 "
b00000000 #
b0 $
b0 %
b0 &
b00000000 '
b00000000 (
b0 )
b0 *
b000 +
b00000000 ,
b0 -
b0 .
b0 /
b00000000 0
b0 1
b1 2
b1 3
b1 4
b1 5
b0000 6
b1111 7
b0 8
b1 9
b1 :
#51
b0 !
b00000000 "
b00000000 #
b0 $
b0 %
b0 &
b00000000 '
b00000000 (
b0 )
b0 *
b000 +
b00000000 ,
b0 -
b0 .
b0 /
b00000000 0
b0 1
b1 2
b1 3
b1 4
b1 5
b0000 6
b1111 7
b0 8
b1 9
b0 :
#52
b0 !
b00000000 "
b00000000 #
b0 $
b0 %
b0 &
b00000000 '
b00000000 (
b0 )
b0 *
b000 +
b00000000 ,
b0 -
b0 .
b0 /
b00000000 0
b0 1
b1 2
b1 3
b0 4
b1 5
b0000 6
b1111 7
b0 8
b1 9
b1 :
#53
b0 !
b00000000 "
b00000000 #
b0 $
b0 %
b0 &
b00000000 '
b00000000 (
b0 )
b0 *
b000 +
b00000000 ,
b0 -
b0 .
b0 /
b00000000 0
b0 1
b1 2
b1 3
b0 4
b1 5
b0000 6
b1111 7
b0 8
b1 9
b0 :
#54
b0 !
b00000000 "
b00000000 #
b0 $
b0 %
b0 &
b00000000 '
b00000000 (
b0 )
b0 *
b000 +
b00000000 ,
b0 -
b0 .
b0 /
b00000000 0
b0 1
b1 2
b1 3
b0 4
b1 5
b0000 6
b1111 7
b0 8
b1 9
b1 :
#55
b0 !
b00000000 "
b00000000 #
b0 $
b0 %
b0 &
b00000000 '
b00000000 (
b0 )
b0 *
b000 +
b00000000 ,
b0 -
b0 .
b0 /
b00000000 0
b0 1
b1 2
b1 3
b0 4
b1 5
b0000 6
b1111 7
b0 8
b1 9
b0 :
#56
b0 !
b00000000 "
b00000000 #
b0 $
b0 %
b0 &
b00000000 '
b00000000 (
b0 )
b0 *
b000 +
b00000000 ,
b0 -
b0 .
b0 /
b00000000 0
b0 1
b1 2
b1 3
b1 4
b1 5
b0000 6
b1111 7
b0 8
b1 9
b1 :
#57
b0 !
b00000000 "
b00000000 #
b0 $
b0 %
b0 &
b00000000 '
b00000000 (
b0 )
b0 *
b000 +
b00000000 ,
b0 -
b0 .
b0 /
b00000000 0
b0 1
b1 2
b1 3
b1 4
b1 5
b0000 6
b1111 7
b0 8
b1 9
b0 :
#58
b0 !
b00000000 "
b00000000 #
b0 $
b0 %
b0 &
b00000000 '
b00000000 (
b0 )
b0 *
b000 +
b00000000 ,
b0 -
b0 .
b0 /
b00000000 0
b0 1
b1 2
b1 3
b1 4
b1 5
b0000 6
b1111 7
b0 8
b1 9
b1 :
#59
b0 !
b00000000 "
b00000000 #
b0 $
b0 %
b0 &
b00000000 '
b00000000 (
b0 )
b0 *
b000 +
b00000000 ,
b0 -
b0 .
b0 /
b00000000 0
b0 1
b1 2
b1 3
b1 4
b1 5
b0000 6
b1111 7
b0 8
b1 9
b0 :
#60
b0 !
b00000000 "
b00000000 #
b0 $
b0 %
b0 &
b00000000 '
b00000000 (
b0 )
b0 *
b000 +
b00000000 ,
b0 -
b0 .
b0 /
b00000000 0
b0 1
b1 2
b0 3
b0 4
b1 5
b0000 6
b1111 7
b0 8
b1 9
b1 :
#61
b0 !
b00000000 "
b00000000 #
b0 $
b0 %
b0 &
b00000000 '
b00000000 (
b0 )
b0 *
b000 +
b00000000 ,
b0 -
b0 .
b0 /
b00000000 0
b0 1
b1 2
b0 3
b0 4
b1 5
b0000 6
b1111 7
b0 8
b1 9
b0 :
#62
b0 !
b00000000 "
b00000000 #
b0 $
b0 %
b0 &
b00000000 '
b00000000 (
b0 )
b0 *
b000 +
b00000000 ,
b0 -
b0 .
b0 /
b00000000 0
b0 1
b1 2
b0 3
b0 4
b1 5
b0000 6
b1111 7
b0 8
b1 9
b1 :
#63
b0 !
b00000000 "
b00000000 #
b0 $
b0 %
b0 &
b00000000 '
b00000000 (
b0 )
b0 *
b000 +
b00000000 ,
b0 -
b0 .
b0 /
b00000000 0
b0 1
b1 2
b0 3
b0 4
b1 5
b0000 6
b1111 7
b0 8
b1 9
b0 :
#64
b0 !
b00000000 "
b00000000 #
b0 $
b0 %
b0 &
b00000000 '
b00000000 (
b0 )
b0 *
b000 +
b00000000 ,
b0 -
b0 .
b0 /
b00000000 0
b0 1
b1 2
b1 3
b1 4
b1 5
b0000 6
b1111 7
b0 8
b1 9
b1 :
#65
b0 !
b00000000 "
b00000000 #
b0 $
b0 %
b0 &
b00000000 '
b00000000 (
b0 )
b0 *
b000 +
b00000000 ,
b0 -
b0 .
b0 /
b00000000 0
b0 1
b1 2
b1 3
b1 4
b1 5
b0000 6
b1111 7
b0 8
b1 9
b0 :
#66
b0 !
b00000000 "
b00000000 #
b0 $
b0 %
b0 &
b00000000 '
b00000000 (
b0 )
b0 *
b000 +
b00000000 ,
b0 -
b0 .
b0 /
b00000000 0
b0 1
b1 2
b1 3
b1 4
b1 5
b0000 6
b1111 7
b0 8
b1 9
b1 :
#67
b0 !
b00000000 "
b00000000 #
b0 $
b0 %
b0 &
b00000000 '
b00000000 (
b0 )
b0 *
b000 +
b00000000 ,
b0 -
b0 .
b0 /
b00000000 0
b0 1
b1 2
b1 3
b1 4
b1 5
b0000 6
b1111 7
b0 8
b1 9
b0 :
#68
b0 !
b00000000 "
b00000000 #
b0 $
b0 %
b0 &
b00000000 '
b00000000 (
b0 )
b0 *
b000 +
b00000000 ,
b0 -
b0 .
b0 /
b00000000 0
b0 1
b1 2
b0 3
b0 4
b1 5
b0000 6
b1111 7
b0 8
b1 9
b1 :
#69
b0 !
b00000000 "
b00000000 #
b0 $
b0 %
b0 &
b00000000 '
b00000000 (
b0 )
b0 *
b000 +
b00000000 ,
b0 -
b0 .
b0 /
b00000000 0
b0 1
b1 2
b0 3
b0 4
b1 5
b0000 6
b1111 7
b0 8
b1 9
b0 :
#70
b0 !
b00000000 "
b00000000 #
b0 $
b0 %
b0 &
b00000000 '
b00000000 (
b0 )
b0 *
b000 +
b00000000 ,
b0 -
b0 .
b0 /
b00000000 0
b0 1
b1 2
b0 3
b0 4
b1 5
b0000 6
b1111 7
b0 8
b1 9
b1 :
#71
b0 !
b00000000 "
b00000000 #
b0 $
b0 %
b0 &
b00000000 '
b00000000 (
b0 )
b0 *
b000 +
b00000000 ,
b0 -
b0 .
b0 /
b00000000 0
b0 1
b1 2
b0 3
b0 4
b1 5
b0000 6
b1111 7
b0 8
b1 9
b0 :
#72
b0 !
b00000000 "
b00000000 #
b0 $
b0 %
b0 &
b00000000 '
b00000000 (
b0 )
b0 *
b000 +
b00000000 ,
b0 -
b0 .
b0 /
b00000000 0
b0 1
b1 2
b1 3
b1 4
b1 5
b0000 6
b1111 7
b0 8
b1 9
b1 :
#73
b0 !
b00000000 "
b00000000 #
b0 $
b0 %
b0 &
b00000000 '
b00000000 (
b0 )
b0 *
b000 +
b00000000 ,
b0 -
b0 .
b0 /
b00000000 0
b0 1
b1 2
b1 3
b1 4
b1 5
b0000 6
b1111 7
b0 8
b1 9
b0 :
#74
b0 !
b00000000 "
b00000000 #
b0 $
b0 %
b0 &
b00000000 '
b00000000 (
b0 )
b0 *
b000 +
b00000000 ,
b0 -
b0 .
b0 /
b00000000 0
b0 1
b1 2
b1 3
b1 4
b1 5
b0000 6
b1111 7
b0 8
b1 9
b1 :
#75
b0 !
b00000000 "
b00000000 #
b0 $
b0 %
b0 &
b00000000 '
b00000000 (
b0 )
b0 *
b000 +
b00000000 ,
b0 -
b0 .
b0 /
b00000000 0
b0 1
b1 2
b1 3
b1 4
b1 5
b0000 6
b1111 7
b0 8
b1 9
b0 :
#76
b0 !
b00000000 "
b00000000 #
b0 $
b0 %
b0 &
b00000000 '
b00000000 (
b0 )
b0 *
b000 +
b00000000 ,
b0 -
b0 .
b0 /
b00000000 0
b0 1
b1 2
b0 3
b0 4
b1 5
b0000 6
b1111 7
b0 8
b1 9
b1 :
#77
b0 !
b00000000 "
b00000000 #
b0 $
b0 %
b0 &
b00000000 '
b00000000 (
b0 )
b0 *
b000 +
b00000000 ,
b0 -
b0 .
b0 /
b00000000 0
b0 1
b1 2
b0 3
b0 4
b1 5
b0000 6
b1111 7
b0 8
b1 9
b0 :
#78
b0 !
b00000000 "
b00000000 #
b0 $
b0 %
b0 &
b00000000 '
b00000000 (
b0 )
b0 *
b000 +
b00000000 ,
b0 -
b0 .
b0 /
b00000000 0
b0 1
b1 2
b0 3
b0 4
b1 5
b0000 6
b1111 7
b0 8
b1 9
b1 :
#79
b0 !
b00000000 "
b00000000 #
b0 $
b0 %
b0 &
b00000000 '
b00000000 (
b0 )
b0 *
b000 +
b00000000 ,
b0 -
b0 .
b0 /
b00000000 0
b0 1
b1 2
b0 3
b0 4
b1 5
b0000 6
b1111 7
b0 8
b1 9
b0 :
#80
b0 !
b00000000 "
b00000000 #
b0 $
b0 %
b0 &
b00000000 '
b00000000 (
b0 )
b0 *
b000 +
b00000000 ,
b0 -
b0 .
b0 /
b00000000 0
b0 1
b1 2
b1 3
b1 4
b1 5
b0000 6
b1111 7
b0 8
b0 9
b1 :
#81
b0 !
b00000000 "
b00000000 #
b0 $
b0 %
b0 &
b00000000 '
b00000000 (
b0 )
b0 *
b000 +
b00000000 ,
b0 -
b0 .
b0 /
b00000000 0
b0 1
b1 2
b1 3
b1 4
b1 5
b0000 6
b1111 7
b0 8
b0 9
b0 :
#82
b0 !
b00000000 "
b00000000 #
b0 $
b0 %
b0 &
b00000000 '
b00000000 (
b0 )
b0 *
b000 +
b00000000 ,
b0 -
b0 .
b0 /
b00000000 0
b0 1
b1 2
b1 3
b1 4
b1 5
b0000 6
b1111 7
b0 8
b0 9
b1 :
#83
b0 !
b00000000 "
b00000000 #
b0 $
b0 %
b0 &
b00000000 '
b00000000 (
b0 )
b0 *
b000 +
b00000000 ,
b0 -
b0 .
b0 /
b00000000 0
b0 1
b1 2
b1 3
b1 4
b1 5
b0000 6
b1111 7
b0 8
b0 9
b0 :
#84
b0 !
b00000000 "
b00000000 #
b0 $
b0 %
b0 &
b00000000 '
b00000000 (
b0 )
b0 *
b000 +
b00000000 ,
b0 -
b0 .
b0 /
b00000000 0
b0 1
b1 2
b1 3
b1 4
b1 5
b0000 6
b1111 7
b0 8
b1 9
b1 :
#85
b0 !
b00000000 "
b00000000 #
b0 $
b0 %
b0 &
b00000000 '
b00000000 (
b0 )
b0 *
b000 +
b00000000 ,
b0 -
b0 .
b0 /
b00000000 0
b0 1
b1 2
b1 3
b1 4
b1 5
b0000 6
b1111 7
b0 8
b1 9
b0 :
#86
b0 !
b00000000 "
b00000000 #
b0 $
b0 %
b0 &
b00000000 '
b00000000 (
b0 )
b0 *
b000 +
b00000000 ,
b0 -
b0 .
b0 /
b00000000 0
b0 1
b1 2
b1 3
b1 4
b1 5
b0000 6
b1111 7
b0 8
b1 9
b1 :
#87
b0 !
b00000000 "
b00000000 #
b0 $
b0 %
b0 &
b00000000 '
b00000000 (
b0 )
b0 *
b000 +
b00000000 ,
b0 -
b0 .
b0 /
b00000000 0
b0 1
b1 2
b1 3
b1 4
b1 5
b0000 6
b1111 7
b0 8
b1 9
b0 :
#88
b0 !
b00000000 "
b00000000 #
b0 $
b0 %
b0 &
b00000000 '
b00000000 (
b0 )
b0 *
b000 +
b00000000 ,
b0 -
b0 .
b0 /
b00000000 0
b0 1
b1 2
b1 3
b0 4
b1 5
b0000 6
b1111 7
b0 8
b1 9
b1 :
#89
b0 !
b00000000 "
b00000000 #
b0 $
b0 %
b0 &
b00000000 '
b00000000 (
b0 )
b0 *
b000 +
b00000000 ,
b0 -
b0 .
b0 /
b00000000 0
b0 1
b1 2
b1 3
b0 4
b1 5
b0000 6
b1111 7
b0 8
b1 9
b0 :
#90
b0 !
b00000000 "
b00000000 #
b0 $
b0 %
b0 &
b00000000 '
b00000000 (
b0 )
b0 *
b000 +
b00000000 ,
b0 -
b0 .
b0 /
b00000000 0
b0 1
b1 2
b1 3
b0 4
b1 5
b0000 6
b1111 7
b0 8
b1 9
b1 :
#91
b0 !
b00000000 "
b00000000 #
b0 $
b0 %
b0 &
b00000000 '
b00000000 (
b0 )
b0 *
b000 +
b00000000 ,
b0 -
b0 .
b0 /
b00000000 0
b0 1
b1 2
b1 3
b0 4
b1 5
b0000 6
b1111 7
b0 8
b1 9
b0 :
#92
b0 !
b00000000 "
b00000000 #
b0 $
b0 %
b0 &
b00000000 '
b00000000 (
b0 )
b0 *
b000 +
b00000000 ,
b0 -
b0 .
b0 /
b00000000 0
b0 1
b1 2
b0 3
b0 4
b1 5
b0000 6
b1111 7
b0 8
b1 9
b1 :
#93
b0 !
b00000000 "
b00000000 #
b0 $
b0 %
b0 &
b00000000 '
b00000000 (
b0 )
b0 *
b000 +
b00000000 ,
b0 -
b0 .
b0 /
b00000000 0
b0 1
b1 2
b0 3
b0 4
b1 5
b0000 6
b1111 7
b0 8
b1 9
b0 :
