test/vcd/litescope-debug-data-2.vcd
$date
	2017-07-25 20:35
$end
$timescale 1ps $end
$scope 1ps $end
$var wire 1 ! sdphy_datar_sink_sink_valid $end
$var wire 8 " sdphy_datar_sink_sink_payload_data $end
$var wire 8 # sdphy_datar_sink_sink_payload_ctrl $end
$var wire 1 $ sdphy_datar_sink_sink_last $end
$var wire 1 % sdphy_datar_sink_sink_ready $end
$var wire 1 & sdphy_datar_source_source_valid $end
$var wire 8 ' sdphy_datar_source_source_payload_data $end
$var wire 8 ( sdphy_datar_source_source_payload_ctrl $end
$var wire 1 ) sdphy_datar_source_source_last $end
$var wire 1 * sdphy_datar_source_source_ready $end
$var wire 8 + sdphy_datar_read $end
$var wire 8 , sdphy_datar_toread $end
$var wire 8 - sdphy_datar_cnt $end
$var wire 4 . sdphy_datar_status $end
$var wire 32 / sdphy_datar_dtimeout $end
$var wire 1 0 sdphy_datar_enable $end
$var wire 1 1 sdphy_datar_datarfb_sel $end
$var wire 4 2 sdphy_datar_datarfb_data $end
$var wire 1 3 sdphy_datar_datarfb_source_valid $end
$var wire 8 4 sdphy_datar_datarfb_source_payload_data $end
$var wire 1 5 sdphy_datar_datarfb_source_last $end
$var wire 1 6 sdphy_datar_datarfb_source_ready $end
$var wire 1 7 sdphy_sdpads_cmd_i $end
$var wire 1 8 sdphy_sdpads_cmd_o $end
$var wire 1 9 sdphy_sdpads_cmd_oe $end
$var wire 4 : sdphy_data_t_i $end
$var wire 4 ; sdphy_sdpads_data_i $end
$var wire 4 < sdphy_sdpads_data_o $end
$var wire 1 = sdphy_sdpads_data_oe $end
$var wire 1 > sdphy_sdpads_clk $end
$var wire 1 ? capture_clk $end
$unscope  $end
$enddefinitions  $end
$dumpvars
bx !
bxxxxxxxx "
bxxxxxxxx #
bx $
bx %
bx &
bxxxxxxxx '
bxxxxxxxx (
bx )
bx *
bxxxxxxxx +
bxxxxxxxx ,
bxxxxxxxx -
bxxxx .
bxxxxxxxxxxxxxxxxxxxxxxxxxxxxxxxx /
bx 0
bx 1
bxxxx 2
bx 3
bxxxxxxxx 4
bx 5
bx 6
bx 7
bx 8
bx 9
bxxxx :
bxxxx ;
bxxxx <
bx =
bx >
bx ?
$end
#0
b1 !
b00000000 "
b00000001 #
b1 $
b0 %
b0 &
b00000000 '
b00000001 (
b0 )
b1 *
b00000000 +
b00001111 ,
b00000000 -
b0000 .
b00000000000000000000001001101100 /
b1 0
b0 1
b0000 2
b0 3
b00000000 4
b0 5
b1 6
b1 7
b0 8
b0 9
b0000 :
b0000 ;
b0000 <
b0 =
b1 >
b1 ?
#1
b1 !
b00000000 "
b00000001 #
b1 $
b0 %
b0 &
b00000000 '
b00000001 (
b0 )
b1 *
b00000000 +
b00001111 ,
b00000000 -
b0000 .
b00000000000000000000001001101100 /
b1 0
b0 1
b0000 2
b0 3
b00000000 4
b0 5
b1 6
b1 7
b0 8
b0 9
b0000 :
b0000 ;
b0000 <
b0 =
b1 >
b0 ?
#2
b1 !
b00000000 "
b00000001 #
b1 $
b0 %
b0 &
b00000000 '
b00000001 (
b0 )
b1 *
b00000000 +
b00001111 ,
b00000000 -
b0000 .
b00000000000000000000001001101100 /
b1 0
b0 1
b0000 2
b0 3
b00000000 4
b0 5
b1 6
b1 7
b0 8
b0 9
b0000 :
b0000 ;
b0000 <
b0 =
b1 >
b1 ?
#3
b1 !
b00000000 "
b00000001 #
b1 $
b0 %
b0 &
b00000000 '
b00000001 (
b0 )
b1 *
b00000000 +
b00001111 ,
b00000000 -
b0000 .
b00000000000000000000001001101100 /
b1 0
b0 1
b0000 2
b0 3
b00000000 4
b0 5
b1 6
b1 7
b0 8
b0 9
b0000 :
b0000 ;
b0000 <
b0 =
b1 >
b0 ?
#4
b1 !
b00000000 "
b00000001 #
b1 $
b0 %
b0 &
b00000000 '
b00000001 (
b0 )
b1 *
b00000000 +
b00001111 ,
b00000000 -
b0000 .
b00000000000000000000001001101100 /
b1 0
b0 1
b0000 2
b0 3
b00000000 4
b0 5
b1 6
b1 7
b0 8
b0 9
b0000 :
b0000 ;
b0000 <
b0 =
b1 >
b1 ?
#5
b1 !
b00000000 "
b00000001 #
b1 $
b0 %
b0 &
b00000000 '
b00000001 (
b0 )
b1 *
b00000000 +
b00001111 ,
b00000000 -
b0000 .
b00000000000000000000001001101100 /
b1 0
b0 1
b0000 2
b0 3
b00000000 4
b0 5
b1 6
b1 7
b0 8
b0 9
b0000 :
b0000 ;
b0000 <
b0 =
b1 >
b0 ?
#6
b1 !
b00000000 "
b00000001 #
b1 $
b0 %
b0 &
b00000000 '
b00000001 (
b0 )
b1 *
b00000000 +
b00001111 ,
b00000000 -
b0000 .
b00000000000000000000001001101100 /
b1 0
b0 1
b0000 2
b0 3
b00000000 4
b0 5
b1 6
b1 7
b0 8
b0 9
b0000 :
b0000 ;
b0000 <
b0 =
b1 >
b1 ?
#7
b1 !
b00000000 "
b00000001 #
b1 $
b0 %
b0 &
b00000000 '
b00000001 (
b0 )
b1 *
b00000000 +
b00001111 ,
b00000000 -
b0000 .
b00000000000000000000001001101100 /
b1 0
b0 1
b0000 2
b0 3
b00000000 4
b0 5
b1 6
b1 7
b0 8
b0 9
b0000 :
b0000 ;
b0000 <
b0 =
b1 >
b0 ?
#8
b1 !
b00000000 "
b00000001 #
b1 $
b0 %
b0 &
b00000000 '
b00000001 (
b0 )
b1 *
b00000000 +
b00001111 ,
b00000000 -
b0000 .
b00000000000000000000001001101100 /
b1 0
b0 1
b0000 2
b0 3
b00000000 4
b0 5
b1 6
b1 7
b0 8
b0 9
b0000 :
b0000 ;
b0000 <
b0 =
b1 >
b1 ?
#9
b1 !
b00000000 "
b00000001 #
b1 $
b0 %
b0 &
b00000000 '
b00000001 (
b0 )
b1 *
b00000000 +
b00001111 ,
b00000000 -
b0000 .
b00000000000000000000001001101100 /
b1 0
b0 1
b0000 2
b0 3
b00000000 4
b0 5
b1 6
b1 7
b0 8
b0 9
b0000 :
b0000 ;
b0000 <
b0 =
b1 >
b0 ?
#10
b1 !
b00000000 "
b00000001 #
b1 $
b0 %
b0 &
b00000000 '
b00000001 (
b0 )
b1 *
b00000000 +
b00001111 ,
b00000000 -
b0000 .
b00000000000000000000001001101100 /
b1 0
b0 1
b0000 2
b0 3
b00000000 4
b0 5
b1 6
b1 7
b0 8
b0 9
b0000 :
b0000 ;
b0000 <
b0 =
b1 >
b1 ?
#11
b1 !
b00000000 "
b00000001 #
b1 $
b0 %
b0 &
b00000000 '
b00000001 (
b0 )
b1 *
b00000000 +
b00001111 ,
b00000000 -
b0000 .
b00000000000000000000001001101100 /
b1 0
b0 1
b0000 2
b0 3
b00000000 4
b0 5
b1 6
b1 7
b0 8
b0 9
b0000 :
b0000 ;
b0000 <
b0 =
b1 >
b0 ?
#12
b1 !
b00000000 "
b00000001 #
b1 $
b0 %
b0 &
b00000000 '
b00000001 (
b0 )
b1 *
b00000000 +
b00001111 ,
b00000000 -
b0000 .
b00000000000000000000001001101100 /
b1 0
b0 1
b0000 2
b0 3
b00000000 4
b0 5
b1 6
b1 7
b0 8
b0 9
b0000 :
b0000 ;
b0000 <
b0 =
b1 >
b1 ?
#13
b1 !
b00000000 "
b00000001 #
b1 $
b0 %
b0 &
b00000000 '
b00000001 (
b0 )
b1 *
b00000000 +
b00001111 ,
b00000000 -
b0000 .
b00000000000000000000001001101100 /
b1 0
b0 1
b0000 2
b0 3
b00000000 4
b0 5
b1 6
b1 7
b0 8
b0 9
b0000 :
b0000 ;
b0000 <
b0 =
b1 >
b0 ?
#14
b1 !
b00000000 "
b00000001 #
b1 $
b0 %
b0 &
b00000000 '
b00000001 (
b0 )
b1 *
b00000000 +
b00001111 ,
b00000000 -
b0000 .
b00000000000000000000001001101100 /
b1 0
b0 1
b0000 2
b0 3
b00000000 4
b0 5
b1 6
b1 7
b0 8
b0 9
b0000 :
b0000 ;
b0000 <
b0 =
b1 >
b1 ?
#15
b1 !
b00000000 "
b00000001 #
b1 $
b0 %
b0 &
b00000000 '
b00000001 (
b0 )
b1 *
b00000000 +
b00001111 ,
b00000000 -
b0000 .
b00000000000000000000001001101100 /
b1 0
b0 1
b0000 2
b0 3
b00000000 4
b0 5
b1 6
b1 7
b0 8
b0 9
b0000 :
b0000 ;
b0000 <
b0 =
b1 >
b0 ?
#16
b1 !
b00000000 "
b00000001 #
b1 $
b0 %
b0 &
b00000000 '
b00000001 (
b0 )
b1 *
b00000000 +
b00001111 ,
b00000000 -
b0000 .
b00000000000000000000001001101100 /
b1 0
b0 1
b0000 2
b0 3
b00000000 4
b0 5
b1 6
b1 7
b0 8
b0 9
b0000 :
b0000 ;
b0000 <
b0 =
b1 >
b1 ?
#17
b1 !
b00000000 "
b00000001 #
b1 $
b0 %
b0 &
b00000000 '
b00000001 (
b0 )
b1 *
b00000000 +
b00001111 ,
b00000000 -
b0000 .
b00000000000000000000001001101100 /
b1 0
b0 1
b0000 2
b0 3
b00000000 4
b0 5
b1 6
b1 7
b0 8
b0 9
b0000 :
b0000 ;
b0000 <
b0 =
b1 >
b0 ?
#18
b1 !
b00000000 "
b00000001 #
b1 $
b0 %
b0 &
b00000000 '
b00000001 (
b0 )
b1 *
b00000000 +
b00001111 ,
b00000000 -
b0000 .
b00000000000000000000001001101100 /
b1 0
b0 1
b0000 2
b0 3
b00000000 4
b0 5
b1 6
b1 7
b0 8
b0 9
b0000 :
b0000 ;
b0000 <
b0 =
b1 >
b1 ?
#19
b1 !
b00000000 "
b00000001 #
b1 $
b0 %
b0 &
b00000000 '
b00000001 (
b0 )
b1 *
b00000000 +
b00001111 ,
b00000000 -
b0000 .
b00000000000000000000001001101100 /
b1 0
b0 1
b0000 2
b0 3
b00000000 4
b0 5
b1 6
b1 7
b0 8
b0 9
b0000 :
b0000 ;
b0000 <
b0 =
b1 >
b0 ?
#20
b1 !
b00000000 "
b00000001 #
b1 $
b0 %
b0 &
b00000000 '
b00000001 (
b0 )
b1 *
b00000000 +
b00001111 ,
b00000000 -
b0000 .
b00000000000000000000001001101100 /
b1 0
b0 1
b0000 2
b0 3
b00000000 4
b0 5
b1 6
b1 7
b0 8
b0 9
b0000 :
b0000 ;
b0000 <
b0 =
b1 >
b1 ?
#21
b1 !
b00000000 "
b00000001 #
b1 $
b0 %
b0 &
b00000000 '
b00000001 (
b0 )
b1 *
b00000000 +
b00001111 ,
b00000000 -
b0000 .
b00000000000000000000001001101100 /
b1 0
b0 1
b0000 2
b0 3
b00000000 4
b0 5
b1 6
b1 7
b0 8
b0 9
b0000 :
b0000 ;
b0000 <
b0 =
b1 >
b0 ?
#22
b1 !
b00000000 "
b00000001 #
b1 $
b0 %
b0 &
b00000000 '
b00000001 (
b0 )
b1 *
b00000000 +
b00001111 ,
b00000000 -
b0000 .
b00000000000000000000001001101100 /
b1 0
b0 1
b0000 2
b0 3
b00000000 4
b0 5
b1 6
b1 7
b0 8
b0 9
b0000 :
b0000 ;
b0000 <
b0 =
b1 >
b1 ?
#23
b1 !
b00000000 "
b00000001 #
b1 $
b0 %
b0 &
b00000000 '
b00000001 (
b0 )
b1 *
b00000000 +
b00001111 ,
b00000000 -
b0000 .
b00000000000000000000001001101100 /
b1 0
b0 1
b0000 2
b0 3
b00000000 4
b0 5
b1 6
b1 7
b0 8
b0 9
b0000 :
b0000 ;
b0000 <
b0 =
b1 >
b0 ?
#24
b1 !
b00000000 "
b00000001 #
b1 $
b0 %
b0 &
b00000000 '
b00000001 (
b0 )
b1 *
b00000000 +
b00001111 ,
b00000000 -
b0000 .
b00000000000000000000001001101100 /
b1 0
b0 1
b0000 2
b0 3
b00000000 4
b0 5
b1 6
b1 7
b0 8
b0 9
b0000 :
b0000 ;
b0000 <
b0 =
b1 >
b1 ?
#25
b1 !
b00000000 "
b00000001 #
b1 $
b0 %
b0 &
b00000000 '
b00000001 (
b0 )
b1 *
b00000000 +
b00001111 ,
b00000000 -
b0000 .
b00000000000000000000001001101100 /
b1 0
b0 1
b0000 2
b0 3
b00000000 4
b0 5
b1 6
b1 7
b0 8
b0 9
b0000 :
b0000 ;
b0000 <
b0 =
b1 >
b0 ?
#26
b1 !
b00000000 "
b00000001 #
b1 $
b0 %
b0 &
b00000000 '
b00000001 (
b0 )
b1 *
b00000000 +
b00001111 ,
b00000000 -
b0000 .
b00000000000000000000001001101100 /
b1 0
b0 1
b0000 2
b0 3
b00000000 4
b0 5
b1 6
b1 7
b0 8
b0 9
b0000 :
b0000 ;
b0000 <
b0 =
b1 >
b1 ?
#27
b1 !
b00000000 "
b00000001 #
b1 $
b0 %
b0 &
b00000000 '
b00000001 (
b0 )
b1 *
b00000000 +
b00001111 ,
b00000000 -
b0000 .
b00000000000000000000001001101100 /
b1 0
b0 1
b0000 2
b0 3
b00000000 4
b0 5
b1 6
b1 7
b0 8
b0 9
b0000 :
b0000 ;
b0000 <
b0 =
b1 >
b0 ?
#28
b1 !
b00000000 "
b00000001 #
b1 $
b0 %
b0 &
b00000000 '
b00000001 (
b0 )
b1 *
b00000000 +
b00001111 ,
b00000000 -
b0000 .
b00000000000000000000001001101100 /
b1 0
b0 1
b0000 2
b0 3
b00000000 4
b0 5
b1 6
b1 7
b0 8
b0 9
b0000 :
b0000 ;
b0000 <
b0 =
b1 >
b1 ?
#29
b1 !
b00000000 "
b00000001 #
b1 $
b0 %
b0 &
b00000000 '
b00000001 (
b0 )
b1 *
b00000000 +
b00001111 ,
b00000000 -
b0000 .
b00000000000000000000001001101100 /
b1 0
b0 1
b0000 2
b0 3
b00000000 4
b0 5
b1 6
b1 7
b0 8
b0 9
b0000 :
b0000 ;
b0000 <
b0 =
b1 >
b0 ?
#30
b1 !
b00000000 "
b00000001 #
b1 $
b0 %
b0 &
b00000000 '
b00000001 (
b0 )
b1 *
b00000000 +
b00001111 ,
b00000000 -
b0000 .
b00000000000000000000001001101100 /
b1 0
b0 1
b0000 2
b0 3
b00000000 4
b0 5
b1 6
b1 7
b0 8
b0 9
b0000 :
b0000 ;
b0000 <
b0 =
b1 >
b1 ?
#31
b1 !
b00000000 "
b00000001 #
b1 $
b0 %
b0 &
b00000000 '
b00000001 (
b0 )
b1 *
b00000000 +
b00001111 ,
b00000000 -
b0000 .
b00000000000000000000001001101100 /
b1 0
b0 1
b0000 2
b0 3
b00000000 4
b0 5
b1 6
b1 7
b0 8
b0 9
b0000 :
b0000 ;
b0000 <
b0 =
b1 >
b0 ?
#32
b1 !
b00000000 "
b00000001 #
b1 $
b0 %
b0 &
b00000000 '
b00000001 (
b0 )
b1 *
b00000000 +
b00001111 ,
b00000000 -
b0000 .
b00000000000000000000001001101100 /
b1 0
b0 1
b0000 2
b0 3
b00000000 4
b0 5
b1 6
b1 7
b0 8
b0 9
b0000 :
b0000 ;
b0000 <
b0 =
b1 >
b1 ?
#33
b1 !
b00000000 "
b00000001 #
b1 $
b0 %
b0 &
b00000000 '
b00000001 (
b0 )
b1 *
b00000000 +
b00001111 ,
b00000000 -
b0000 .
b00000000000000000000001001101100 /
b1 0
b0 1
b0000 2
b0 3
b00000000 4
b0 5
b1 6
b1 7
b0 8
b0 9
b0000 :
b0000 ;
b0000 <
b0 =
b1 >
b0 ?
#34
b1 !
b00000000 "
b00000001 #
b1 $
b0 %
b0 &
b00000000 '
b00000001 (
b0 )
b1 *
b00000000 +
b00001111 ,
b00000000 -
b0000 .
b00000000000000000000001001101100 /
b1 0
b0 1
b0000 2
b0 3
b00000000 4
b0 5
b1 6
b1 7
b0 8
b0 9
b0000 :
b0000 ;
b0000 <
b0 =
b1 >
b1 ?
#35
b1 !
b00000000 "
b00000001 #
b1 $
b0 %
b0 &
b00000000 '
b00000001 (
b0 )
b1 *
b00000000 +
b00001111 ,
b00000000 -
b0000 .
b00000000000000000000001001101100 /
b1 0
b0 1
b0000 2
b0 3
b00000000 4
b0 5
b1 6
b1 7
b0 8
b0 9
b0000 :
b0000 ;
b0000 <
b0 =
b1 >
b0 ?
#36
b1 !
b00000000 "
b00000001 #
b1 $
b0 %
b0 &
b00000000 '
b00000001 (
b0 )
b1 *
b00000000 +
b00001111 ,
b00000000 -
b0000 .
b00000000000000000000001001101101 /
b1 0
b1 1
b0000 2
b1 3
b00000000 4
b0 5
b1 6
b1 7
b0 8
b0 9
b0010 :
b0000 ;
b0000 <
b0 =
b1 >
b1 ?
#37
b1 !
b00000000 "
b00000001 #
b1 $
b0 %
b0 &
b00000000 '
b00000001 (
b0 )
b1 *
b00000000 +
b00001111 ,
b00000000 -
b0000 .
b00000000000000000000001001101101 /
b1 0
b1 1
b0000 2
b1 3
b00000000 4
b0 5
b1 6
b1 7
b0 8
b0 9
b0010 :
b0000 ;
b0000 <
b0 =
b1 >
b0 ?
#38
b1 !
b00000000 "
b00000001 #
b1 $
b0 %
b0 &
b00000000 '
b00000001 (
b0 )
b1 *
b00000000 +
b00001111 ,
b00000000 -
b0000 .
b00000000000000000000001001101101 /
b1 0
b1 1
b0000 2
b1 3
b00000000 4
b0 5
b1 6
b1 7
b0 8
b0 9
b0010 :
b0000 ;
b0000 <
b0 =
b1 >
b1 ?
#39
b1 !
b00000000 "
b00000001 #
b1 $
b0 %
b0 &
b00000000 '
b00000001 (
b0 )
b1 *
b00000000 +
b00001111 ,
b00000000 -
b0000 .
b00000000000000000000001001101101 /
b1 0
b1 1
b0000 2
b1 3
b00000000 4
b0 5
b1 6
b1 7
b0 8
b0 9
b0010 :
b0000 ;
b0000 <
b0 =
b1 >
b0 ?
#40
b1 !
b00000000 "
b00000001 #
b1 $
b0 %
b0 &
b00000000 '
b00000001 (
b0 )
b1 *
b00000000 +
b00001111 ,
b00000000 -
b0000 .
b00000000000000000000001001101101 /
b1 0
b1 1
b0000 2
b1 3
b00000000 4
b0 5
b1 6
b1 7
b0 8
b0 9
b0010 :
b0000 ;
b0000 <
b0 =
b1 >
b1 ?
#41
b1 !
b00000000 "
b00000001 #
b1 $
b0 %
b0 &
b00000000 '
b00000001 (
b0 )
b1 *
b00000000 +
b00001111 ,
b00000000 -
b0000 .
b00000000000000000000001001101101 /
b1 0
b1 1
b0000 2
b1 3
b00000000 4
b0 5
b1 6
b1 7
b0 8
b0 9
b0010 :
b0000 ;
b0000 <
b0 =
b1 >
b0 ?
#42
b1 !
b00000000 "
b00000001 #
b1 $
b0 %
b0 &
b00000000 '
b00000001 (
b0 )
b1 *
b00000000 +
b00001111 ,
b00000000 -
b0000 .
b00000000000000000000001001101101 /
b1 0
b1 1
b0000 2
b1 3
b00000000 4
b0 5
b1 6
b1 7
b0 8
b0 9
b0010 :
b0000 ;
b0000 <
b0 =
b1 >
b1 ?
#43
b1 !
b00000000 "
b00000001 #
b1 $
b0 %
b0 &
b00000000 '
b00000001 (
b0 )
b1 *
b00000000 +
b00001111 ,
b00000000 -
b0000 .
b00000000000000000000001001101101 /
b1 0
b1 1
b0000 2
b1 3
b00000000 4
b0 5
b1 6
b1 7
b0 8
b0 9
b0010 :
b0000 ;
b0000 <
b0 =
b1 >
b0 ?
#44
b1 !
b00000000 "
b00000001 #
b1 $
b0 %
b0 &
b00000000 '
b00000001 (
b0 )
b1 *
b00000000 +
b00001111 ,
b00000000 -
b0000 .
b00000000000000000000001001101101 /
b1 0
b1 1
b0000 2
b1 3
b00000000 4
b0 5
b1 6
b1 7
b0 8
b0 9
b0010 :
b0000 ;
b0000 <
b0 =
b1 >
b1 ?
#45
b1 !
b00000000 "
b00000001 #
b1 $
b0 %
b0 &
b00000000 '
b00000001 (
b0 )
b1 *
b00000000 +
b00001111 ,
b00000000 -
b0000 .
b00000000000000000000001001101101 /
b1 0
b1 1
b0000 2
b1 3
b00000000 4
b0 5
b1 6
b1 7
b0 8
b0 9
b0010 :
b0000 ;
b0000 <
b0 =
b1 >
b0 ?
#46
b1 !
b00000000 "
b00000001 #
b1 $
b0 %
b0 &
b00000000 '
b00000001 (
b0 )
b1 *
b00000000 +
b00001111 ,
b00000000 -
b0000 .
b00000000000000000000001001101101 /
b1 0
b1 1
b0000 2
b1 3
b00000000 4
b0 5
b1 6
b1 7
b0 8
b0 9
b0010 :
b0000 ;
b0000 <
b0 =
b1 >
b1 ?
#47
b1 !
b00000000 "
b00000001 #
b1 $
b0 %
b0 &
b00000000 '
b00000001 (
b0 )
b1 *
b00000000 +
b00001111 ,
b00000000 -
b0000 .
b00000000000000000000001001101101 /
b1 0
b1 1
b0000 2
b1 3
b00000000 4
b0 5
b1 6
b1 7
b0 8
b0 9
b0010 :
b0000 ;
b0000 <
b0 =
b1 >
b0 ?
#48
b1 !
b00000000 "
b00000001 #
b1 $
b0 %
b0 &
b00000000 '
b00000001 (
b0 )
b1 *
b00000000 +
b00001111 ,
b00000000 -
b0000 .
b00000000000000000000001001101101 /
b1 0
b1 1
b0000 2
b1 3
b00000000 4
b0 5
b1 6
b1 7
b0 8
b0 9
b0010 :
b0000 ;
b0000 <
b0 =
b1 >
b1 ?
#49
b1 !
b00000000 "
b00000001 #
b1 $
b0 %
b0 &
b00000000 '
b00000001 (
b0 )
b1 *
b00000000 +
b00001111 ,
b00000000 -
b0000 .
b00000000000000000000001001101101 /
b1 0
b1 1
b0000 2
b1 3
b00000000 4
b0 5
b1 6
b1 7
b0 8
b0 9
b0010 :
b0000 ;
b0000 <
b0 =
b1 >
b0 ?
#50
b1 !
b00000000 "
b00000001 #
b1 $
b0 %
b0 &
b00000000 '
b00000001 (
b0 )
b1 *
b00000000 +
b00001111 ,
b00000000 -
b0000 .
b00000000000000000000001001101101 /
b1 0
b1 1
b0000 2
b1 3
b00000000 4
b0 5
b1 6
b1 7
b0 8
b0 9
b0010 :
b0000 ;
b0000 <
b0 =
b1 >
b1 ?
#51
b1 !
b00000000 "
b00000001 #
b1 $
b0 %
b0 &
b00000000 '
b00000001 (
b0 )
b1 *
b00000000 +
b00001111 ,
b00000000 -
b0000 .
b00000000000000000000001001101101 /
b1 0
b1 1
b0000 2
b1 3
b00000000 4
b0 5
b1 6
b1 7
b0 8
b0 9
b0010 :
b0000 ;
b0000 <
b0 =
b1 >
b0 ?
#52
b1 !
b00000000 "
b00000001 #
b1 $
b0 %
b0 &
b00000000 '
b00000001 (
b0 )
b1 *
b00000000 +
b00001111 ,
b00000000 -
b0000 .
b00000000000000000000001001101101 /
b1 0
b1 1
b0000 2
b1 3
b00000000 4
b0 5
b1 6
b1 7
b0 8
b0 9
b0010 :
b0000 ;
b0000 <
b0 =
b1 >
b1 ?
#53
b1 !
b00000000 "
b00000001 #
b1 $
b0 %
b0 &
b00000000 '
b00000001 (
b0 )
b1 *
b00000000 +
b00001111 ,
b00000000 -
b0000 .
b00000000000000000000001001101101 /
b1 0
b1 1
b0000 2
b1 3
b00000000 4
b0 5
b1 6
b1 7
b0 8
b0 9
b0010 :
b0000 ;
b0000 <
b0 =
b1 >
b0 ?
#54
b1 !
b00000000 "
b00000001 #
b1 $
b0 %
b0 &
b00000000 '
b00000001 (
b0 )
b1 *
b00000000 +
b00001111 ,
b00000000 -
b0000 .
b00000000000000000000001001101101 /
b1 0
b1 1
b0000 2
b1 3
b00000000 4
b0 5
b1 6
b1 7
b0 8
b0 9
b0010 :
b0000 ;
b0000 <
b0 =
b1 >
b1 ?
#55
b1 !
b00000000 "
b00000001 #
b1 $
b0 %
b0 &
b00000000 '
b00000001 (
b0 )
b1 *
b00000000 +
b00001111 ,
b00000000 -
b0000 .
b00000000000000000000001001101101 /
b1 0
b1 1
b0000 2
b1 3
b00000000 4
b0 5
b1 6
b1 7
b0 8
b0 9
b0010 :
b0000 ;
b0000 <
b0 =
b1 >
b0 ?
#56
b1 !
b00000000 "
b00000001 #
b1 $
b0 %
b0 &
b00000000 '
b00000001 (
b0 )
b1 *
b00000000 +
b00001111 ,
b00000000 -
b0000 .
b00000000000000000000001001101101 /
b1 0
b1 1
b0000 2
b1 3
b00000000 4
b0 5
b1 6
b1 7
b0 8
b0 9
b0010 :
b0000 ;
b0000 <
b0 =
b1 >
b1 ?
#57
b1 !
b00000000 "
b00000001 #
b1 $
b0 %
b0 &
b00000000 '
b00000001 (
b0 )
b1 *
b00000000 +
b00001111 ,
b00000000 -
b0000 .
b00000000000000000000001001101101 /
b1 0
b1 1
b0000 2
b1 3
b00000000 4
b0 5
b1 6
b1 7
b0 8
b0 9
b0010 :
b0000 ;
b0000 <
b0 =
b1 >
b0 ?
#58
b1 !
b00000000 "
b00000001 #
b1 $
b0 %
b0 &
b00000000 '
b00000001 (
b0 )
b1 *
b00000000 +
b00001111 ,
b00000000 -
b0000 .
b00000000000000000000001001101101 /
b1 0
b1 1
b0000 2
b1 3
b00000000 4
b0 5
b1 6
b1 7
b0 8
b0 9
b0010 :
b0000 ;
b0000 <
b0 =
b1 >
b1 ?
#59
b1 !
b00000000 "
b00000001 #
b1 $
b0 %
b0 &
b00000000 '
b00000001 (
b0 )
b1 *
b00000000 +
b00001111 ,
b00000000 -
b0000 .
b00000000000000000000001001101101 /
b1 0
b1 1
b0000 2
b1 3
b00000000 4
b0 5
b1 6
b1 7
b0 8
b0 9
b0010 :
b0000 ;
b0000 <
b0 =
b1 >
b0 ?
#60
b1 !
b00000000 "
b00000001 #
b1 $
b0 %
b0 &
b00000000 '
b00000001 (
b0 )
b1 *
b00000000 +
b00001111 ,
b00000000 -
b0000 .
b00000000000000000000001001101101 /
b1 0
b1 1
b0000 2
b1 3
b00000000 4
b0 5
b1 6
b1 7
b0 8
b0 9
b0010 :
b0000 ;
b0000 <
b0 =
b1 >
b1 ?
#61
b1 !
b00000000 "
b00000001 #
b1 $
b0 %
b0 &
b00000000 '
b00000001 (
b0 )
b1 *
b00000000 +
b00001111 ,
b00000000 -
b0000 .
b00000000000000000000001001101101 /
b1 0
b1 1
b0000 2
b1 3
b00000000 4
b0 5
b1 6
b1 7
b0 8
b0 9
b0010 :
b0000 ;
b0000 <
b0 =
b1 >
b0 ?
#62
b1 !
b00000000 "
b00000001 #
b1 $
b0 %
b0 &
b00000000 '
b00000001 (
b0 )
b1 *
b00000000 +
b00001111 ,
b00000000 -
b0000 .
b00000000000000000000001001101101 /
b1 0
b1 1
b0000 2
b1 3
b00000000 4
b0 5
b1 6
b1 7
b0 8
b0 9
b0010 :
b0000 ;
b0000 <
b0 =
b1 >
b1 ?
#63
b1 !
b00000000 "
b00000001 #
b1 $
b0 %
b0 &
b00000000 '
b00000001 (
b0 )
b1 *
b00000000 +
b00001111 ,
b00000000 -
b0000 .
b00000000000000000000001001101101 /
b1 0
b1 1
b0000 2
b1 3
b00000000 4
b0 5
b1 6
b1 7
b0 8
b0 9
b0010 :
b0000 ;
b0000 <
b0 =
b1 >
b0 ?
#64
b1 !
b00000000 "
b00000001 #
b1 $
b0 %
b0 &
b00000000 '
b00000001 (
b0 )
b1 *
b00000000 +
b00001111 ,
b00000000 -
b0000 .
b00000000000000000000001001101101 /
b1 0
b1 1
b0000 2
b1 3
b00000000 4
b0 5
b1 6
b1 7
b0 8
b0 9
b0010 :
b0000 ;
b0000 <
b0 =
b1 >
b1 ?
#65
b1 !
b00000000 "
b00000001 #
b1 $
b0 %
b0 &
b00000000 '
b00000001 (
b0 )
b1 *
b00000000 +
b00001111 ,
b00000000 -
b0000 .
b00000000000000000000001001101101 /
b1 0
b1 1
b0000 2
b1 3
b00000000 4
b0 5
b1 6
b1 7
b0 8
b0 9
b0010 :
b0000 ;
b0000 <
b0 =
b1 >
b0 ?
#66
b1 !
b00000000 "
b00000001 #
b1 $
b0 %
b0 &
b00000000 '
b00000001 (
b0 )
b1 *
b00000000 +
b00001111 ,
b00000000 -
b0000 .
b00000000000000000000001001101101 /
b1 0
b1 1
b0000 2
b1 3
b00000000 4
b0 5
b1 6
b1 7
b0 8
b0 9
b0010 :
b0000 ;
b0000 <
b0 =
b1 >
b1 ?
#67
b1 !
b00000000 "
b00000001 #
b1 $
b0 %
b0 &
b00000000 '
b00000001 (
b0 )
b1 *
b00000000 +
b00001111 ,
b00000000 -
b0000 .
b00000000000000000000001001101101 /
b1 0
b1 1
b0000 2
b1 3
b00000000 4
b0 5
b1 6
b1 7
b0 8
b0 9
b0010 :
b0000 ;
b0000 <
b0 =
b1 >
b0 ?
#68
b1 !
b00000000 "
b00000001 #
b1 $
b0 %
b0 &
b00000000 '
b00000001 (
b0 )
b1 *
b00000000 +
b00001111 ,
b00000000 -
b0000 .
b00000000000000000000001001101101 /
b1 0
b1 1
b0000 2
b1 3
b00000010 4
b0 5
b1 6
b1 7
b0 8
b0 9
b0010 :
b0010 ;
b0000 <
b0 =
b1 >
b1 ?
#69
b1 !
b00000000 "
b00000001 #
b1 $
b0 %
b0 &
b00000000 '
b00000001 (
b0 )
b1 *
b00000000 +
b00001111 ,
b00000000 -
b0000 .
b00000000000000000000001001101101 /
b1 0
b1 1
b0000 2
b1 3
b00000010 4
b0 5
b1 6
b1 7
b0 8
b0 9
b0010 :
b0010 ;
b0000 <
b0 =
b1 >
b0 ?
#70
b1 !
b00000000 "
b00000001 #
b1 $
b0 %
b0 &
b00000000 '
b00000001 (
b0 )
b1 *
b00000000 +
b00001111 ,
b00000000 -
b0000 .
b00000000000000000000001001101101 /
b1 0
b1 1
b0000 2
b1 3
b00000010 4
b0 5
b1 6
b1 7
b0 8
b0 9
b0010 :
b0010 ;
b0000 <
b0 =
b1 >
b1 ?
#71
b1 !
b00000000 "
b00000001 #
b1 $
b0 %
b0 &
b00000000 '
b00000001 (
b0 )
b1 *
b00000000 +
b00001111 ,
b00000000 -
b0000 .
b00000000000000000000001001101101 /
b1 0
b1 1
b0000 2
b1 3
b00000010 4
b0 5
b1 6
b1 7
b0 8
b0 9
b0010 :
b0010 ;
b0000 <
b0 =
b1 >
b0 ?
